{"results":[{"tmdbId":278,"mediaType":"movie","title":"The Shawshank Redemption","releaseYear":"1994","posterUrl":"https://image.tmdb.org/t/p/w185/9cqNxx0GxF0bflZmeSMuL5tnGzr.jpg","voteAverage":8.7,"voteCount":30735},{"tmdbId":1399,"mediaType":"tv","title":"Game of Thrones","releaseYear":"2011","posterUrl":"https://image.tmdb.org/t/p/w185/1XS1oqL89opfnbLl8WnZY1O1uJx.jpg","voteAverage":8.5,"voteCount":27207},{"tmdbId":1416,"mediaType":"tv","title":"Grey's Anatomy","releaseYear":"2005","posterUrl":"https://image.tmdb.org/t/p/w185/hjJkrLXhWvGHpLeLBDFznpBTY1S.jpg","voteAverage":8.2,"voteCount":10959},{"tmdbId":1622,"mediaType":"tv","title":"Supernatural","releaseYear":"2005","posterUrl":"https://image.tmdb.org/t/p/w185/8iixmfGx5EIFPdpNvB2JvI3VIqX.jpg","voteAverage":8.3,"voteCount":8523},{"tmdbId":94997,"mediaType":"tv","title":"House of the Dragon","releaseYear":"2022","posterUrl":"https://image.tmdb.org/t/p/w185/7V0Ebks0GgpKvQ7QbLAIdX5dos4.jpg","voteAverage":8.4,"voteCount":6537},{"tmdbId":687163,"mediaType":"movie","title":"Project Hail Mary","releaseYear":"2026","posterUrl":"https://image.tmdb.org/t/p/w185/yihdXomYb5kTeSivtFndMy5iDmf.jpg","voteAverage":8.7,"voteCount":5899},{"tmdbId":5920,"mediaType":"tv","title":"The Mentalist","releaseYear":"2008","posterUrl":"https://image.tmdb.org/t/p/w185/acYXu4KaDj1NIkMgObnhe4C4a0T.jpg","voteAverage":8.4,"voteCount":4397},{"tmdbId":2734,"mediaType":"tv","title":"Law & Order: Special Victims Unit","releaseYear":"1999","posterUrl":"https://image.tmdb.org/t/p/w185/iofokHZoUB4Qhik4PflvJl8TT6a.jpg","voteAverage":8,"voteCount":4281},{"tmdbId":124364,"mediaType":"tv","title":"FROM","releaseYear":"2022","posterUrl":"https://image.tmdb.org/t/p/w185/pRtJagIxpfODzzb0T0NAvZSzErC.jpg","voteAverage":8.5,"voteCount":3961},{"tmdbId":936075,"mediaType":"movie","title":"Michael","releaseYear":"2026","posterUrl":"https://image.tmdb.org/t/p/w185/zm0KAbOjlt9eR5y7vDiL2dEOwMl.jpg","voteAverage":8.7,"voteCount":3412},{"tmdbId":79744,"mediaType":"tv","title":"The Rookie","releaseYear":"2018","posterUrl":"https://image.tmdb.org/t/p/w185/70kTz0OmjjZe7zHvIDrq2iKW7PJ.jpg","voteAverage":8.5,"voteCount":3365},{"tmdbId":1339713,"mediaType":"movie","title":"Obsession","releaseYear":"2026","posterUrl":"https://image.tmdb.org/t/p/w185/bRwnj8WEKBCvmfeUNOukJPwB43K.jpg","voteAverage":8.3,"voteCount":2597},{"tmdbId":125988,"mediaType":"tv","title":"Silo","releaseYear":"2023","posterUrl":"https://image.tmdb.org/t/p/w185/gMYZZvnkVNTqSVnVCphWbPXwWwb.jpg","voteAverage":8.2,"voteCount":2212},{"tmdbId":931285,"mediaType":"movie","title":"Mortal Kombat II","releaseYear":"2026","posterUrl":"https://image.tmdb.org/t/p/w185/hwRdDFIhaEmpRgoki805YvyyjZf.jpg","voteAverage":8,"voteCount":1938},{"tmdbId":94664,"mediaType":"tv","title":"Mushoku Tensei: Jobless Reincarnation","releaseYear":"2021","posterUrl":"https://image.tmdb.org/t/p/w185/gLKOYIMyKlUHW0SVdskhgf9C0yy.jpg","voteAverage":8.5,"voteCount":1560},{"tmdbId":1314481,"mediaType":"movie","title":"The Devil Wears Prada 2","releaseYear":"2026","posterUrl":"https://image.tmdb.org/t/p/w185/fCAURTUx3YfsJ8k9I0UamjSILiR.jpg","voteAverage":7.1,"voteCount":1379},{"tmdbId":1083381,"mediaType":"movie","title":"Backrooms","releaseYear":"2026","posterUrl":"https://image.tmdb.org/t/p/w185/rhGx6E3qRNMgj3i5su2oukNHwIQ.jpg","voteAverage":6.8,"voteCount":984},{"tmdbId":1275779,"mediaType":"movie","title":"Disclosure Day","releaseYear":"2026","posterUrl":"https://image.tmdb.org/t/p/w185/259wnijEJoJLPuZuscxDTqwnypw.jpg","voteAverage":6.7,"voteCount":847},{"tmdbId":11012,"mediaType":"movie","title":"Damage","releaseYear":"1992","posterUrl":"https://image.tmdb.org/t/p/w185/alf3JOPP7EYP0iO24gwe5YfRnqo.jpg","voteAverage":6.6,"voteCount":701},{"tmdbId":549,"mediaType":"tv","title":"Law & Order","releaseYear":"1990","posterUrl":"https://image.tmdb.org/t/p/w185/haJ9eHytVO3H3JooMJG1DiWwDNm.jpg","voteAverage":7.3,"voteCount":695},{"tmdbId":1084244,"mediaType":"movie","title":"Toy Story 5","releaseYear":"2026","posterUrl":"https://image.tmdb.org/t/p/w185/sfQtVlIHljToOwYjhe21KPGzZWK.jpg","voteAverage":7.4,"voteCount":557},{"tmdbId":1273221,"mediaType":"movie","title":"Scary Movie","releaseYear":"2026","posterUrl":"https://image.tmdb.org/t/p/w185/1KlYdWoOrbL5ux357rW9LC155qw.jpg","voteAverage":5.4,"voteCount":436},{"tmdbId":299167,"mediaType":"tv","title":"Dutton Ranch","releaseYear":"2026","posterUrl":"https://image.tmdb.org/t/p/w185/xsiecCxd8lkcAluw0wWwbW5CwSv.jpg","voteAverage":9.2,"voteCount":408},{"tmdbId":1202033,"mediaType":"movie","title":"Enola Holmes 3","releaseYear":"2026","posterUrl":"https://image.tmdb.org/t/p/w185/7kRYHH9H9PjBFwz1FprbHB2AAjI.jpg","voteAverage":7,"voteCount":332},{"tmdbId":1368314,"mediaType":"movie","title":"Passenger","releaseYear":"2026","posterUrl":"https://image.tmdb.org/t/p/w185/2sOEJzhPzjTkZSlPbGxOJ7xgIyS.jpg","voteAverage":6.7,"voteCount":234},{"tmdbId":1413976,"mediaType":"movie","title":"Citizen Vigilante","releaseYear":"2026","posterUrl":"https://image.tmdb.org/t/p/w185/6LmJD3Wohe0g4U62wgi7RyJqfE4.jpg","voteAverage":6.5,"voteCount":226},{"tmdbId":1127384,"mediaType":"movie","title":"Deep Water","releaseYear":"2026","posterUrl":"https://image.tmdb.org/t/p/w185/kjcuS7xaRyqRjVaVcH4t0qHshuX.jpg","voteAverage":7.3,"voteCount":182},{"tmdbId":1280738,"mediaType":"movie","title":"The Furious","releaseYear":"2025","posterUrl":"https://image.tmdb.org/t/p/w185/zP19YO60jwEsfKd5Qf1UvA5uJu8.jpg","voteAverage":7.5,"voteCount":153},{"tmdbId":1315772,"mediaType":"movie","title":"Minions & Monsters","releaseYear":"2026","posterUrl":"https://image.tmdb.org/t/p/w185/nz7i42yhLIJ4ve9JKgM6NthoLHO.jpg","voteAverage":6.4,"voteCount":145},{"tmdbId":1523145,"mediaType":"movie","title":"Your Heart Will Be Broken","releaseYear":"2026","posterUrl":"https://image.tmdb.org/t/p/w185/7wIBfBl2gejt6xHxNSK0reVIm7E.jpg","voteAverage":7.1,"voteCount":107},{"tmdbId":5721,"mediaType":"movie","title":"Vixen!","releaseYear":"1968","posterUrl":"https://image.tmdb.org/t/p/w185/9KMZWDA3xTrlgrScqdMisINQmsh.jpg","voteAverage":5.5,"voteCount":104},{"tmdbId":95897,"mediaType":"tv","title":"Overflow","releaseYear":"2020","posterUrl":"https://image.tmdb.org/t/p/w185/8RtwL5gxUvh9YViqjhNlVRvJpum.jpg","voteAverage":7.4,"voteCount":88},{"tmdbId":45247,"mediaType":"tv","title":"Chihayafuru","releaseYear":"2011","posterUrl":"https://image.tmdb.org/t/p/w185/nUfL7xK5DjViiQAwHiRYlb6VMTE.jpg","voteAverage":7.6,"voteCount":66},{"tmdbId":241002,"mediaType":"tv","title":"Adam's Sweet Agony","releaseYear":"2024","posterUrl":"https://image.tmdb.org/t/p/w185/1n1ZP0KHXUSvVxZG63x7aOzmO4M.jpg","voteAverage":6.9,"voteCount":36},{"tmdbId":1279493,"mediaType":"movie","title":"The Get Out","releaseYear":"2026","posterUrl":"https://image.tmdb.org/t/p/w185/zlkeH0s7dDxcnuPcHBqAyXFUxqN.jpg","voteAverage":6.3,"voteCount":35},{"tmdbId":312949,"mediaType":"tv","title":"Chainsmoker Cat","releaseYear":"2026","posterUrl":"https://image.tmdb.org/t/p/w185/kqeKlSd7o9BCbTraZsDnksRSfxm.jpg","voteAverage":8.9,"voteCount":14},{"tmdbId":243206,"mediaType":"tv","title":"Pritam and Pedro","releaseYear":"2026","posterUrl":"https://image.tmdb.org/t/p/w185/lC0MtWrnC0SZICFHazagIfVKy0x.jpg","voteAverage":8.5,"voteCount":9},{"tmdbId":4304,"mediaType":"tv","title":"Xplay","releaseYear":"2003","posterUrl":"https://image.tmdb.org/t/p/w185/7ynD7g4U9hOODu1Jzf6VN4zQc6a.jpg","voteAverage":8.5,"voteCount":4},{"tmdbId":322055,"mediaType":"tv","title":"The Prosecutor's Proposal","releaseYear":"2026","posterUrl":"https://image.tmdb.org/t/p/w185/lK6DrnFecG0AsA8O5UqEYOrOArd.jpg","voteAverage":5,"voteCount":4},{"tmdbId":316540,"mediaType":"tv","title":"Bittersweet Love","releaseYear":"2026","posterUrl":"https://image.tmdb.org/t/p/w185/xGXWk9FL4SNJpiLCKDkB3QTO4w6.jpg","voteAverage":null,"voteCount":0}],"page":1,"totalPages":57941,"totalResults":1385286,"appliedFilters":{"year":null,"genreIds":[],"providerKey":null,"voteAverageGte":null,"personId":null,"mediaType":"both","country":"EG","page":1,"sortBy":"popularity.desc"},"warnings":[]}